{
  "id":"space_janitor",
  "name":"Space Janitor",
  "author":"Histidine",
  "version":"1.0",
  "description":"Cleans up debris fields and scavenger fleets",
  "gameVersion":"0.8.1a",
  "jars":["jars/SpaceJanitor.jar"],
  "modPlugin":"org.histidine.janitor.campaign.JanitorModPlugin",
}